Lab6
…
##    user  system elapsed 
##   8.405   0.070   8.570

Show the performance of the best models and the estimates for the
learning rate parameter values associated with each.

# look at the metrics for each model
collect_metrics(xgb_grid)

## # A tibble: 30 × 7
##    learn_rate .metric .estimator  mean     n std_err .config              
##         <dbl> <chr>   <chr>      <dbl> <int>   <dbl> <chr>                
##  1     0.0001 roc_auc binary     0.786    10  0.0217 Preprocessor1_Model01
##  2     0.0104 roc_auc binary     0.797    10  0.0221 Preprocessor1_Model02
##  3     0.0208 roc_auc binary     0.809    10  0.0209 Preprocessor1_Model03
##  4     0.0311 roc_auc binary     0.821    10  0.0187 Preprocessor1_Model04
##  5     0.0415 roc_auc binary     0.822    10  0.0169 Preprocessor1_Model05
##  6     0.0518 roc_auc binary     0.832    10  0.0178 Preprocessor1_Model06
##  7     0.0621 roc_auc binary     0.834    10  0.0164 Preprocessor1_Model07
##  8     0.0725 roc_auc binary     0.838    10  0.0186 Preprocessor1_Model08
##  9     0.0828 roc_auc binary     0.838    10  0.0202 Preprocessor1_Model09
## 10     0.0932 roc_auc binary     0.838    10  0.0201 Preprocessor1_Model10
## # ℹ 20 more rows
…
##    user  system elapsed 
##  15.989   0.167  16.411

Show the performance of the best models and the estimates for the
tree parameter values associated with each.

# look at the metrics for each model
collect_metrics(xgb_grid_3)

## # A tibble: 50 × 9
##     mtry sample_size stop_iter .metric .estimator  mean     n std_err .config   
##    <int>       <dbl>     <int> <chr>   <chr>      <dbl> <int>   <dbl> <chr>     
##  1    10       0.798        10 roc_auc binary     0.847    10  0.0179 Preproces…
##  2    11       0.464        14 roc_auc binary     0.830    10  0.0215 Preproces…
##  3     2       0.575        15 roc_auc binary     0.836    10  0.0185 Preproces…
##  4     7       0.674         4 roc_auc binary     0.844    10  0.0191 Preproces…
##  5     1       0.546         7 roc_auc binary     0.831    10  0.0256 Preproces…
##  6     9       0.641        11 roc_auc binary     0.831    10  0.0214 Preproces…
##  7    11       0.805        12 roc_auc binary     0.859    10  0.0192 Preproces…
##  8    11       0.763         6 roc_auc binary     0.867    10  0.0173 Preproces…
##  9     3       0.890        10 roc_auc binary     0.851    10  0.0197 Preproces…
## 10     3       0.747        17 roc_auc binary     0.846    10  0.0213 Preproces…
## # ℹ 40 more rows
…
